Project_Implementation/transcript
# vsim -c -coverage work.tb_top "+TESTNAME=interrupt_test" "+UVM_TESTNAME=interrupt_test" "+SEED=1" -do "coverage save -onexit cov_interrupt_test_1.ucdb; run -all; quit -f" 
# Start time: 20:39:57 on May 19,2026
# ** Note: (vsim-3813) Design is being optimized due to module recompilation...
# //  Questa Sim-64
# //  Version 2021.1 win64 Jan 19 2021
# //
# //  Copyright 1991-2021 Mentor Graphics Corporation
# //  All Rights Reserved.
# //
# //  QuestaSim and its associated documentation contain trade
# //  secrets and commercial or financial information that are the property of
# //  Mentor Graphics Corporation and are privileged, confidential,
# //  and exempt from disclosure under the Freedom of Information Act,
# //  5 U.S.C. Section 552. Furthermore, this information
# //  is prohibited from disclosure under the Trade Secrets Act,
# //  18 U.S.C. Section 1905.
# //
# Loading sv_std.std
# Loading work.tb_top_sv_unit(fast)
# Loading work.tb_top(fast)
# Loading work.apb_if(fast__1)
# Loading work.spi_if(fast__1)
# Loading work.dut_wrapper(fast)
# Loading work.spi_master(fast)
# Loading work.apb_regfile(fast)
# Loading work.apb_sva(fast)
# Loading work.spi_core(fast)
# Loading work.core_sva(fast)
# Loading work.apb_master_bfm(fast)
# Loading work.spi_slave_bfm(fast)
# ** Warning: (vsim-PLI-3003) [TOFD] - System task or function '$$display' is not defined.
#    Time: 0 ps  Iteration: 0  Region: /tb_top_sv_unit::interrupt_test::run File: tests/interrupt_test.sv Line: 50
# coverage save -onexit cov_interrupt_test_1.ucdb
#  run -all
# [INFO] Starting test: interrupt_test
# [INFO] interrupt_test: starting
# ** Error (suppressible): (vsim-12023) Cannot execute undefined system task/function '$$display'
#    Time: 105 ns  Iteration: 3  Process: /tb_top/#INITIAL#164 File: tests/interrupt_test.sv Line: 50
# [BFM] SS asserted: cpha=0 cpol=0 driving_first=1
# [BFM] Launch: bit=1 idx=6 miso=0
# [BFM] Launch: bit=2 idx=5 miso=1
# [BFM] Launch: bit=3 idx=4 miso=0
# [BFM] Launch: bit=4 idx=3 miso=0
# [BFM] Launch: bit=5 idx=2 miso=1
# [BFM] Launch: bit=6 idx=1 miso=0
# [BFM] Launch: bit=7 idx=0 miso=1
# [BFM] Launch: bit=0 idx=7 miso=1
# [BFM] Launch: bit=1 idx=6 miso=0
# [BFM] Launch: bit=2 idx=5 miso=1
# [BFM] Launch: bit=3 idx=4 miso=0
# [BFM] Launch: bit=4 idx=3 miso=0
# [BFM] Launch: bit=5 idx=2 miso=1
# [BFM] Launch: bit=6 idx=1 miso=0
# [BFM] Launch: bit=7 idx=0 miso=1
# [BFM] Launch: bit=0 idx=7 miso=1
# [BFM] Launch: bit=1 idx=6 miso=0
# [BFM] Launch: bit=2 idx=5 miso=1
# [BFM] Launch: bit=3 idx=4 miso=0
# [BFM] Launch: bit=4 idx=3 miso=0
# [BFM] Launch: bit=5 idx=2 miso=1
# [BFM] Launch: bit=6 idx=1 miso=0
# [BFM] Launch: bit=7 idx=0 miso=1
# [BFM] Launch: bit=0 idx=7 miso=1
# [BFM] Launch: bit=1 idx=6 miso=0
# [BFM] Launch: bit=2 idx=5 miso=1
# [BFM] Launch: bit=3 idx=4 miso=0
# [BFM] Launch: bit=4 idx=3 miso=0
# [BFM] Launch: bit=5 idx=2 miso=1
# [BFM] Launch: bit=6 idx=1 miso=0
# [BFM] Launch: bit=7 idx=0 miso=1
# [BFM] Launch: bit=0 idx=7 miso=1
# [BFM] Launch: bit=1 idx=6 miso=0
# [BFM] Launch: bit=2 idx=5 miso=1
# [BFM] Launch: bit=3 idx=4 miso=0
# [BFM] Launch: bit=4 idx=3 miso=0
# [BFM] Launch: bit=5 idx=2 miso=1
# [BFM] Launch: bit=6 idx=1 miso=0
# [BFM] Launch: bit=7 idx=0 miso=1
# [BFM] Launch: bit=0 idx=7 miso=1
# [BFM] Launch: bit=1 idx=6 miso=0
# [BFM] Launch: bit=2 idx=5 miso=1
# [BFM] Launch: bit=3 idx=4 miso=0
# [BFM] Launch: bit=4 idx=3 miso=0
# [BFM] Launch: bit=5 idx=2 miso=1
# [BFM] Launch: bit=6 idx=1 miso=0
# [BFM] Launch: bit=7 idx=0 miso=1
# [BFM] Launch: bit=0 idx=7 miso=1
# [BFM] Launch: bit=1 idx=6 miso=0
# [BFM] Launch: bit=2 idx=5 miso=1
# [BFM] Launch: bit=3 idx=4 miso=0
# [BFM] Launch: bit=4 idx=3 miso=0
# [BFM] Launch: bit=5 idx=2 miso=1
# [BFM] Launch: bit=6 idx=1 miso=0
# [BFM] Launch: bit=7 idx=0 miso=1
# [BFM] Launch: bit=0 idx=7 miso=1
# [BFM] Launch: bit=1 idx=6 miso=0
# [BFM] Launch: bit=2 idx=5 miso=1
# [BFM] Launch: bit=3 idx=4 miso=0
# [BFM] Launch: bit=4 idx=3 miso=0
# [BFM] Launch: bit=5 idx=2 miso=1
# [BFM] Launch: bit=6 idx=1 miso=0
# [BFM] Launch: bit=7 idx=0 miso=1
# [BFM] Launch: bit=0 idx=7 miso=1
# [SCOREBOARD_ERROR] INT_STAT masked mismatch: expected=0x00000004 observed=0x00000000 mask=0x00000004
# [BFM] SS asserted: cpha=0 cpol=0 driving_first=1
# [BFM] Launch: bit=1 idx=6 miso=0
# [BFM] Launch: bit=2 idx=5 miso=1
# [BFM] Launch: bit=3 idx=4 miso=0
# [BFM] Launch: bit=4 idx=3 miso=0
# [BFM] Launch: bit=5 idx=2 miso=1
# [BFM] Launch: bit=6 idx=1 miso=0
# [BFM] Launch: bit=7 idx=0 miso=1
# [BFM] Launch: bit=0 idx=7 miso=1
# [BFM] Launch: bit=1 idx=6 miso=0
# [BFM] Launch: bit=2 idx=5 miso=1
# [BFM] Launch: bit=3 idx=4 miso=0
# [BFM] Launch: bit=4 idx=3 miso=0
# [BFM] Launch: bit=5 idx=2 miso=1
# [BFM] Launch: bit=6 idx=1 miso=0
# [BFM] Launch: bit=7 idx=0 miso=1
# [BFM] Launch: bit=0 idx=7 miso=1
# [BFM] Launch: bit=1 idx=6 miso=0
# [BFM] Launch: bit=2 idx=5 miso=1
# [BFM] Launch: bit=3 idx=4 miso=0
# [BFM] Launch: bit=4 idx=3 miso=0
# [BFM] Launch: bit=5 idx=2 miso=1
# [BFM] Launch: bit=6 idx=1 miso=0
# [BFM] Launch: bit=7 idx=0 miso=1
# [BFM] Launch: bit=0 idx=7 miso=1
# [BFM] Launch: bit=1 idx=6 miso=0
# [BFM] Launch: bit=2 idx=5 miso=1
# [BFM] Launch: bit=3 idx=4 miso=0
# [BFM] Launch: bit=4 idx=3 miso=0
# [BFM] Launch: bit=5 idx=2 miso=1
# [BFM] Launch: bit=6 idx=1 miso=0
# [BFM] Launch: bit=7 idx=0 miso=1
# [BFM] Launch: bit=0 idx=7 miso=1
# [BFM] Launch: bit=1 idx=6 miso=0
# [BFM] Launch: bit=2 idx=5 miso=1
# [BFM] Launch: bit=3 idx=4 miso=0
# [BFM] Launch: bit=4 idx=3 miso=0
# [BFM] Launch: bit=5 idx=2 miso=1
# [BFM] Launch: bit=6 idx=1 miso=0
# [BFM] Launch: bit=7 idx=0 miso=1
# [BFM] Launch: bit=0 idx=7 miso=1
# [BFM] Launch: bit=1 idx=6 miso=0
# [BFM] Launch: bit=2 idx=5 miso=1
# [BFM] Launch: bit=3 idx=4 miso=0
# [BFM] Launch: bit=4 idx=3 miso=0
# [BFM] Launch: bit=5 idx=2 miso=1
# [BFM] Launch: bit=6 idx=1 miso=0
# [BFM] Launch: bit=7 idx=0 miso=1
# [BFM] Launch: bit=0 idx=7 miso=1
# [BFM] Launch: bit=1 idx=6 miso=0
# [BFM] Launch: bit=2 idx=5 miso=1
# [BFM] Launch: bit=3 idx=4 miso=0
# [BFM] Launch: bit=4 idx=3 miso=0
# [BFM] Launch: bit=5 idx=2 miso=1
# [BFM] Launch: bit=6 idx=1 miso=0
# [BFM] Launch: bit=7 idx=0 miso=1
# [BFM] Launch: bit=0 idx=7 miso=1
# [BFM] Launch: bit=1 idx=6 miso=0
# [BFM] Launch: bit=2 idx=5 miso=1
# [BFM] Launch: bit=3 idx=4 miso=0
# [BFM] Launch: bit=4 idx=3 miso=0
# [BFM] Launch: bit=5 idx=2 miso=1
# [BFM] Launch: bit=6 idx=1 miso=0
# [BFM] Launch: bit=7 idx=0 miso=1
# [BFM] Launch: bit=0 idx=7 miso=1
# [INTERRUPT_TEST] Starting TRANSFER_DONE IRQ test
# [BFM] SS asserted: cpha=0 cpol=0 driving_first=1
# [BFM] Launch: bit=1 idx=6 miso=0
# [BFM] Launch: bit=2 idx=5 miso=1
# [BFM] Launch: bit=3 idx=4 miso=0
# [BFM] Launch: bit=4 idx=3 miso=0
# [BFM] Launch: bit=5 idx=2 miso=1
# [BFM] Launch: bit=6 idx=1 miso=0
# [BFM] Launch: bit=7 idx=0 miso=1
# [BFM] Launch: bit=0 idx=7 miso=1
# [BFM] Launch: bit=1 idx=6 miso=0
# [BFM] Launch: bit=2 idx=5 miso=1
# [BFM] Launch: bit=3 idx=4 miso=0
# [BFM] Launch: bit=4 idx=3 miso=0
# [BFM] Launch: bit=5 idx=2 miso=1
# [BFM] Launch: bit=6 idx=1 miso=0
# [BFM] Launch: bit=7 idx=0 miso=1
# [BFM] Launch: bit=0 idx=7 miso=1
# [BFM] SS asserted: cpha=0 cpol=0 driving_first=1
# [BFM] Launch: bit=1 idx=6 miso=0
# [BFM] Launch: bit=2 idx=5 miso=1
# [BFM] Launch: bit=3 idx=4 miso=0
# [BFM] Launch: bit=4 idx=3 miso=0
# [BFM] Launch: bit=5 idx=2 miso=1
# [BFM] Launch: bit=6 idx=1 miso=0
# [BFM] Launch: bit=7 idx=0 miso=1
# [BFM] Launch: bit=0 idx=7 miso=1
# [BFM] Launch: bit=1 idx=6 miso=0
# [BFM] Launch: bit=2 idx=5 miso=1
# [BFM] Launch: bit=3 idx=4 miso=0
# [BFM] Launch: bit=4 idx=3 miso=0
# [BFM] Launch: bit=5 idx=2 miso=1
# [BFM] Launch: bit=6 idx=1 miso=0
# [BFM] Launch: bit=7 idx=0 miso=1
# [BFM] Launch: bit=0 idx=7 miso=1
# [INTERRUPT_TEST] Starting TX_EMPTY IRQ test
# [BFM] SS asserted: cpha=0 cpol=0 driving_first=1
# [BFM] Launch: bit=1 idx=6 miso=0
# [BFM] Launch: bit=2 idx=5 miso=1
# [BFM] Launch: bit=3 idx=4 miso=0
# [BFM] Launch: bit=4 idx=3 miso=0
# [BFM] Launch: bit=5 idx=2 miso=1
# [BFM] Launch: bit=6 idx=1 miso=0
# [BFM] Launch: bit=7 idx=0 miso=1
# [BFM] Launch: bit=0 idx=7 miso=1
# [BFM] SS asserted: cpha=0 cpol=0 driving_first=1
# [BFM] Launch: bit=1 idx=6 miso=0
# [BFM] Launch: bit=2 idx=5 miso=1
# [BFM] Launch: bit=3 idx=4 miso=0
# [BFM] Launch: bit=4 idx=3 miso=0
# [BFM] Launch: bit=5 idx=2 miso=1
# [BFM] Launch: bit=6 idx=1 miso=0
# [BFM] Launch: bit=7 idx=0 miso=1
# [BFM] Launch: bit=0 idx=7 miso=1
# [BFM] SS asserted: cpha=0 cpol=0 driving_first=1
# [SCOREBOARD_ERROR] INT_STAT masked mismatch: expected=0x00000001 observed=0x00000018 mask=0x00000001
# [BFM] Launch: bit=1 idx=6 miso=0
# [BFM] Launch: bit=2 idx=5 miso=1
# [BFM] Launch: bit=3 idx=4 miso=0
# [BFM] Launch: bit=4 idx=3 miso=0
# [BFM] Launch: bit=5 idx=2 miso=1
# [BFM] Launch: bit=6 idx=1 miso=0
# [BFM] Launch: bit=7 idx=0 miso=1
# [BFM] Launch: bit=0 idx=7 miso=1
# [INTERRUPT_TEST] Starting RX_FULL IRQ test
# [SCOREBOARD_ERROR] INT_STAT masked mismatch: expected=0x00000002 observed=0x00000000 mask=0x00000002
# [SCOREBOARD_ERROR] INT_STAT masked mismatch: expected=0x00000002 observed=0x00000000 mask=0x00000002
# [CHECKER_ERROR] Interrupt test RX_FULL IRQ not asserted when RX_FULL condition met
# [SCOREBOARD_ERROR] INT_STAT masked mismatch: expected=0x00000000 observed=0x00000086 mask=0x00000002
# [SCOREBOARD_ERROR] INT_STAT masked mismatch: expected=0x00000002 observed=0x00000000 mask=0x00000002
# [INTERRUPT_TEST] Starting RX_OVF IRQ test
# [CHECKER_ERROR] Interrupt test RX_OVF IRQ not asserted when RX FIFO overflows
# [SCOREBOARD_ERROR] INT_STAT_RX_OVF masked mismatch: expected=0x00000008 observed=0x00000000 mask=0x00000008
# [SCOREBOARD_ERROR] INT_STAT_RX_OVF masked mismatch: expected=0x00000008 observed=0x00000000 mask=0x00000008
# [SCOREBOARD_ERROR] INT_STAT_RX_OVF_masked masked mismatch: expected=0x00000008 observed=0x00000000 mask=0x00000008
# [SCOREBOARD_ERROR] INT_STAT_RX_OVF_masked masked mismatch: expected=0x00000008 observed=0x00000000 mask=0x00000008
# [SCOREBOARD_ERROR] INT_STAT_RX_OVF_race masked mismatch: expected=0x00000008 observed=0x00000000 mask=0x00000008
# [TEST_FAILED] interrupt_test errors=13
# ** Note: $finish    : ./tb/tb_top.sv(212)
#    Time: 22845 ns  Iteration: 2  Instance: /tb_top
# Saving coverage database on exit...
# End time: 20:40:27 on May 19,2026, Elapsed time: 0:00:30
# Errors: 1, Warnings: 1
