Project_Implementation/transcript
# vsim -c -coverage work.tb_top "+TESTNAME=fifo_stress_test" "+UVM_TESTNAME=fifo_stress_test" "+SEED=1" -do "coverage save -onexit cov_fifo_stress_test_1.ucdb; run -all; quit -f" 
# Start time: 17:58:39 on May 16,2026
# ** Note: (vsim-3813) Design is being optimized due to module recompilation...
# //  Questa Sim-64
# //  Version 2021.1 win64 Jan 19 2021
# //
# //  Copyright 1991-2021 Mentor Graphics Corporation
# //  All Rights Reserved.
# //
# //  QuestaSim and its associated documentation contain trade
# //  secrets and commercial or financial information that are the property of
# //  Mentor Graphics Corporation and are privileged, confidential,
# //  and exempt from disclosure under the Freedom of Information Act,
# //  5 U.S.C. Section 552. Furthermore, this information
# //  is prohibited from disclosure under the Trade Secrets Act,
# //  18 U.S.C. Section 1905.
# //
# Loading sv_std.std
# Loading work.tb_top_sv_unit(fast)
# Loading work.tb_top(fast)
# Loading work.apb_if(fast__1)
# Loading work.spi_if(fast__1)
# Loading work.dut_wrapper(fast)
# Loading work.spi_master(fast)
# Loading work.apb_regfile(fast)
# Loading work.apb_sva(fast)
# Loading work.spi_core(fast)
# Loading work.core_sva(fast)
# Loading work.apb_master_bfm(fast)
# Loading work.spi_slave_bfm(fast)
# coverage save -onexit cov_fifo_stress_test_1.ucdb
#  run -all
# [INFO] Starting test: fifo_stress_test
# [INFO] fifo_stress_test: starting
# [FIFO_STRESS_TEST] FIFO already empty, no need to drain
# [BFM] SS asserted: cpha=0 cpol=0 driving_first=1
# [BFM] Launch: bit=1 idx=6 miso=0
# [BFM] Launch: bit=2 idx=5 miso=1
# [BFM] Launch: bit=3 idx=4 miso=0
# [BFM] Launch: bit=4 idx=3 miso=0
# [BFM] Launch: bit=5 idx=2 miso=1
# [BFM] Launch: bit=6 idx=1 miso=0
# [BFM] Launch: bit=7 idx=0 miso=1
# [BFM] Launch: bit=0 idx=7 miso=1
# [BFM] Launch: bit=1 idx=6 miso=0
# [BFM] Launch: bit=2 idx=5 miso=1
# [BFM] Launch: bit=3 idx=4 miso=0
# [BFM] Launch: bit=4 idx=3 miso=0
# [BFM] Launch: bit=5 idx=2 miso=1
# [BFM] Launch: bit=6 idx=1 miso=0
# [BFM] Launch: bit=7 idx=0 miso=1
# [BFM] Launch: bit=0 idx=7 miso=1
# [BFM] Launch: bit=1 idx=6 miso=0
# [BFM] Launch: bit=2 idx=5 miso=1
# [BFM] Launch: bit=3 idx=4 miso=0
# [BFM] Launch: bit=4 idx=3 miso=0
# [BFM] Launch: bit=5 idx=2 miso=1
# [BFM] Launch: bit=6 idx=1 miso=0
# [BFM] Launch: bit=7 idx=0 miso=1
# [BFM] Launch: bit=0 idx=7 miso=1
# [BFM] Launch: bit=1 idx=6 miso=0
# [BFM] Launch: bit=2 idx=5 miso=1
# [BFM] Launch: bit=3 idx=4 miso=0
# [BFM] Launch: bit=4 idx=3 miso=0
# [BFM] Launch: bit=5 idx=2 miso=1
# [BFM] Launch: bit=6 idx=1 miso=0
# [BFM] Launch: bit=7 idx=0 miso=1
# [BFM] Launch: bit=0 idx=7 miso=1
# [BFM] Launch: bit=1 idx=6 miso=0
# [BFM] Launch: bit=2 idx=5 miso=1
# [BFM] Launch: bit=3 idx=4 miso=0
# [BFM] Launch: bit=4 idx=3 miso=0
# [BFM] Launch: bit=5 idx=2 miso=1
# [BFM] Launch: bit=6 idx=1 miso=0
# [BFM] Launch: bit=7 idx=0 miso=1
# [BFM] Launch: bit=0 idx=7 miso=1
# [BFM] Launch: bit=1 idx=6 miso=0
# [BFM] Launch: bit=2 idx=5 miso=1
# [BFM] Launch: bit=3 idx=4 miso=0
# [BFM] Launch: bit=4 idx=3 miso=0
# [BFM] Launch: bit=5 idx=2 miso=1
# [BFM] Launch: bit=6 idx=1 miso=0
# [BFM] Launch: bit=7 idx=0 miso=1
# [BFM] Launch: bit=0 idx=7 miso=1
# [BFM] Launch: bit=1 idx=6 miso=0
# [BFM] Launch: bit=2 idx=5 miso=1
# [BFM] Launch: bit=3 idx=4 miso=0
# [BFM] Launch: bit=4 idx=3 miso=0
# [BFM] Launch: bit=5 idx=2 miso=1
# [BFM] Launch: bit=6 idx=1 miso=0
# [BFM] Launch: bit=7 idx=0 miso=1
# [BFM] Launch: bit=0 idx=7 miso=1
# [BFM] Launch: bit=1 idx=6 miso=0
# [BFM] Launch: bit=2 idx=5 miso=1
# [BFM] Launch: bit=3 idx=4 miso=0
# [BFM] Launch: bit=4 idx=3 miso=0
# [BFM] Launch: bit=5 idx=2 miso=1
# [BFM] Launch: bit=6 idx=1 miso=0
# [BFM] Launch: bit=7 idx=0 miso=1
# [BFM] Launch: bit=0 idx=7 miso=1
# [FIFO_STRESS_TEST] fifo_stress_test: width=0 test Finished
# [FIFO_STRESS_TEST] FIFO already empty, no need to drain
# [BFM] SS asserted: cpha=0 cpol=0 driving_first=1
# [BFM] Launch: bit=1 idx=14 miso=0
# [BFM] Launch: bit=2 idx=13 miso=0
# [BFM] Launch: bit=3 idx=12 miso=0
# [BFM] Launch: bit=4 idx=11 miso=0
# [BFM] Launch: bit=5 idx=10 miso=0
# [BFM] Launch: bit=6 idx=9 miso=0
# [BFM] Launch: bit=7 idx=8 miso=0
# [BFM] Launch: bit=8 idx=7 miso=1
# [BFM] Launch: bit=9 idx=6 miso=0
# [BFM] Launch: bit=10 idx=5 miso=1
# [BFM] Launch: bit=11 idx=4 miso=0
# [BFM] Launch: bit=12 idx=3 miso=0
# [BFM] Launch: bit=13 idx=2 miso=1
# [BFM] Launch: bit=14 idx=1 miso=0
# [BFM] Launch: bit=15 idx=0 miso=1
# [BFM] Launch: bit=0 idx=15 miso=0
# [BFM] Launch: bit=1 idx=14 miso=0
# [BFM] Launch: bit=2 idx=13 miso=0
# [BFM] Launch: bit=3 idx=12 miso=0
# [BFM] Launch: bit=4 idx=11 miso=0
# [BFM] Launch: bit=5 idx=10 miso=0
# [BFM] Launch: bit=6 idx=9 miso=0
# [BFM] Launch: bit=7 idx=8 miso=0
# [BFM] Launch: bit=8 idx=7 miso=1
# [BFM] Launch: bit=9 idx=6 miso=0
# [BFM] Launch: bit=10 idx=5 miso=1
# [BFM] Launch: bit=11 idx=4 miso=0
# [BFM] Launch: bit=12 idx=3 miso=0
# [BFM] Launch: bit=13 idx=2 miso=1
# [BFM] Launch: bit=14 idx=1 miso=0
# [BFM] Launch: bit=15 idx=0 miso=1
# [BFM] Launch: bit=0 idx=15 miso=0
# [BFM] Launch: bit=1 idx=14 miso=0
# [BFM] Launch: bit=2 idx=13 miso=0
# [BFM] Launch: bit=3 idx=12 miso=0
# [BFM] Launch: bit=4 idx=11 miso=0
# [BFM] Launch: bit=5 idx=10 miso=0
# [BFM] Launch: bit=6 idx=9 miso=0
# [BFM] Launch: bit=7 idx=8 miso=0
# [BFM] Launch: bit=8 idx=7 miso=1
# [BFM] Launch: bit=9 idx=6 miso=0
# [BFM] Launch: bit=10 idx=5 miso=1
# [BFM] Launch: bit=11 idx=4 miso=0
# [BFM] Launch: bit=12 idx=3 miso=0
# [BFM] Launch: bit=13 idx=2 miso=1
# [BFM] Launch: bit=14 idx=1 miso=0
# [BFM] Launch: bit=15 idx=0 miso=1
# [BFM] Launch: bit=0 idx=15 miso=0
# [BFM] Launch: bit=1 idx=14 miso=0
# [BFM] Launch: bit=2 idx=13 miso=0
# [BFM] Launch: bit=3 idx=12 miso=0
# [BFM] Launch: bit=4 idx=11 miso=0
# [BFM] Launch: bit=5 idx=10 miso=0
# [BFM] Launch: bit=6 idx=9 miso=0
# [BFM] Launch: bit=7 idx=8 miso=0
# [BFM] Launch: bit=8 idx=7 miso=1
# [BFM] Launch: bit=9 idx=6 miso=0
# [BFM] Launch: bit=10 idx=5 miso=1
# [BFM] Launch: bit=11 idx=4 miso=0
# [BFM] Launch: bit=12 idx=3 miso=0
# [BFM] Launch: bit=13 idx=2 miso=1
# [BFM] Launch: bit=14 idx=1 miso=0
# [BFM] Launch: bit=15 idx=0 miso=1
# [BFM] Launch: bit=0 idx=15 miso=0
# [BFM] Launch: bit=1 idx=14 miso=0
# [BFM] Launch: bit=2 idx=13 miso=0
# [BFM] Launch: bit=3 idx=12 miso=0
# [BFM] Launch: bit=4 idx=11 miso=0
# [BFM] Launch: bit=5 idx=10 miso=0
# [BFM] Launch: bit=6 idx=9 miso=0
# [BFM] Launch: bit=7 idx=8 miso=0
# [BFM] Launch: bit=8 idx=7 miso=1
# [BFM] Launch: bit=9 idx=6 miso=0
# [BFM] Launch: bit=10 idx=5 miso=1
# [BFM] Launch: bit=11 idx=4 miso=0
# [BFM] Launch: bit=12 idx=3 miso=0
# [BFM] Launch: bit=13 idx=2 miso=1
# [BFM] Launch: bit=14 idx=1 miso=0
# [BFM] Launch: bit=15 idx=0 miso=1
# [BFM] Launch: bit=0 idx=15 miso=0
# [BFM] Launch: bit=1 idx=14 miso=0
# [BFM] Launch: bit=2 idx=13 miso=0
# [BFM] Launch: bit=3 idx=12 miso=0
# [BFM] Launch: bit=4 idx=11 miso=0
# [BFM] Launch: bit=5 idx=10 miso=0
# [BFM] Launch: bit=6 idx=9 miso=0
# [BFM] Launch: bit=7 idx=8 miso=0
# [BFM] Launch: bit=8 idx=7 miso=1
# [BFM] Launch: bit=9 idx=6 miso=0
# [BFM] Launch: bit=10 idx=5 miso=1
# [BFM] Launch: bit=11 idx=4 miso=0
# [BFM] Launch: bit=12 idx=3 miso=0
# [BFM] Launch: bit=13 idx=2 miso=1
# [BFM] Launch: bit=14 idx=1 miso=0
# [BFM] Launch: bit=15 idx=0 miso=1
# [BFM] Launch: bit=0 idx=15 miso=0
# [BFM] Launch: bit=1 idx=14 miso=0
# [BFM] Launch: bit=2 idx=13 miso=0
# [BFM] Launch: bit=3 idx=12 miso=0
# [BFM] Launch: bit=4 idx=11 miso=0
# [BFM] Launch: bit=5 idx=10 miso=0
# [BFM] Launch: bit=6 idx=9 miso=0
# [BFM] Launch: bit=7 idx=8 miso=0
# [BFM] Launch: bit=8 idx=7 miso=1
# [BFM] Launch: bit=9 idx=6 miso=0
# [BFM] Launch: bit=10 idx=5 miso=1
# [BFM] Launch: bit=11 idx=4 miso=0
# [BFM] Launch: bit=12 idx=3 miso=0
# [BFM] Launch: bit=13 idx=2 miso=1
# [BFM] Launch: bit=14 idx=1 miso=0
# [BFM] Launch: bit=15 idx=0 miso=1
# [BFM] Launch: bit=0 idx=15 miso=0
# [BFM] Launch: bit=1 idx=14 miso=0
# [BFM] Launch: bit=2 idx=13 miso=0
# [BFM] Launch: bit=3 idx=12 miso=0
# [BFM] Launch: bit=4 idx=11 miso=0
# [BFM] Launch: bit=5 idx=10 miso=0
# [BFM] Launch: bit=6 idx=9 miso=0
# [BFM] Launch: bit=7 idx=8 miso=0
# [BFM] Launch: bit=8 idx=7 miso=1
# [BFM] Launch: bit=9 idx=6 miso=0
# [BFM] Launch: bit=10 idx=5 miso=1
# [BFM] Launch: bit=11 idx=4 miso=0
# [BFM] Launch: bit=12 idx=3 miso=0
# [BFM] Launch: bit=13 idx=2 miso=1
# [BFM] Launch: bit=14 idx=1 miso=0
# [BFM] Launch: bit=15 idx=0 miso=1
# [BFM] Launch: bit=0 idx=15 miso=0
# [FIFO_STRESS_TEST] fifo_stress_test: width=1 test Finished
# [FIFO_STRESS_TEST] FIFO already empty, no need to drain
# [BFM] SS asserted: cpha=0 cpol=0 driving_first=1
# [BFM] Launch: bit=1 idx=30 miso=0
# [BFM] Launch: bit=2 idx=29 miso=0
# [BFM] Launch: bit=3 idx=28 miso=0
# [BFM] Launch: bit=4 idx=27 miso=0
# [BFM] Launch: bit=5 idx=26 miso=0
# [BFM] Launch: bit=6 idx=25 miso=0
# [BFM] Launch: bit=7 idx=24 miso=0
# [BFM] Launch: bit=8 idx=23 miso=0
# [BFM] Launch: bit=9 idx=22 miso=0
# [BFM] Launch: bit=10 idx=21 miso=0
# [BFM] Launch: bit=11 idx=20 miso=0
# [BFM] Launch: bit=12 idx=19 miso=0
# [BFM] Launch: bit=13 idx=18 miso=0
# [BFM] Launch: bit=14 idx=17 miso=0
# [BFM] Launch: bit=15 idx=16 miso=0
# [BFM] Launch: bit=16 idx=15 miso=0
# [BFM] Launch: bit=17 idx=14 miso=0
# [BFM] Launch: bit=18 idx=13 miso=0
# [BFM] Launch: bit=19 idx=12 miso=0
# [BFM] Launch: bit=20 idx=11 miso=0
# [BFM] Launch: bit=21 idx=10 miso=0
# [BFM] Launch: bit=22 idx=9 miso=0
# [BFM] Launch: bit=23 idx=8 miso=0
# [BFM] Launch: bit=24 idx=7 miso=1
# [BFM] Launch: bit=25 idx=6 miso=0
# [BFM] Launch: bit=26 idx=5 miso=1
# [BFM] Launch: bit=27 idx=4 miso=0
# [BFM] Launch: bit=28 idx=3 miso=0
# [BFM] Launch: bit=29 idx=2 miso=1
# [BFM] Launch: bit=30 idx=1 miso=0
# [BFM] Launch: bit=31 idx=0 miso=1
# [BFM] Launch: bit=0 idx=31 miso=0
# [BFM] Launch: bit=1 idx=30 miso=0
# [BFM] Launch: bit=2 idx=29 miso=0
# [BFM] Launch: bit=3 idx=28 miso=0
# [BFM] Launch: bit=4 idx=27 miso=0
# [BFM] Launch: bit=5 idx=26 miso=0
# [BFM] Launch: bit=6 idx=25 miso=0
# [BFM] Launch: bit=7 idx=24 miso=0
# [BFM] Launch: bit=8 idx=23 miso=0
# [BFM] Launch: bit=9 idx=22 miso=0
# [BFM] Launch: bit=10 idx=21 miso=0
# [BFM] Launch: bit=11 idx=20 miso=0
# [BFM] Launch: bit=12 idx=19 miso=0
# [BFM] Launch: bit=13 idx=18 miso=0
# [BFM] Launch: bit=14 idx=17 miso=0
# [BFM] Launch: bit=15 idx=16 miso=0
# [BFM] Launch: bit=16 idx=15 miso=0
# [BFM] Launch: bit=17 idx=14 miso=0
# [BFM] Launch: bit=18 idx=13 miso=0
# [BFM] Launch: bit=19 idx=12 miso=0
# [BFM] Launch: bit=20 idx=11 miso=0
# [BFM] Launch: bit=21 idx=10 miso=0
# [BFM] Launch: bit=22 idx=9 miso=0
# [BFM] Launch: bit=23 idx=8 miso=0
# [BFM] Launch: bit=24 idx=7 miso=1
# [BFM] Launch: bit=25 idx=6 miso=0
# [BFM] Launch: bit=26 idx=5 miso=1
# [BFM] Launch: bit=27 idx=4 miso=0
# [BFM] Launch: bit=28 idx=3 miso=0
# [BFM] Launch: bit=29 idx=2 miso=1
# [BFM] Launch: bit=30 idx=1 miso=0
# [BFM] Launch: bit=31 idx=0 miso=1
# [BFM] Launch: bit=0 idx=31 miso=0
# [BFM] Launch: bit=1 idx=30 miso=0
# [BFM] Launch: bit=2 idx=29 miso=0
# [BFM] Launch: bit=3 idx=28 miso=0
# [BFM] Launch: bit=4 idx=27 miso=0
# [BFM] Launch: bit=5 idx=26 miso=0
# [BFM] Launch: bit=6 idx=25 miso=0
# [BFM] Launch: bit=7 idx=24 miso=0
# [BFM] Launch: bit=8 idx=23 miso=0
# [BFM] Launch: bit=9 idx=22 miso=0
# [BFM] Launch: bit=10 idx=21 miso=0
# [BFM] Launch: bit=11 idx=20 miso=0
# [BFM] Launch: bit=12 idx=19 miso=0
# [BFM] Launch: bit=13 idx=18 miso=0
# [BFM] Launch: bit=14 idx=17 miso=0
# [BFM] Launch: bit=15 idx=16 miso=0
# [BFM] Launch: bit=16 idx=15 miso=0
# [BFM] Launch: bit=17 idx=14 miso=0
# [BFM] Launch: bit=18 idx=13 miso=0
# [BFM] Launch: bit=19 idx=12 miso=0
# [BFM] Launch: bit=20 idx=11 miso=0
# [BFM] Launch: bit=21 idx=10 miso=0
# [BFM] Launch: bit=22 idx=9 miso=0
# [BFM] Launch: bit=23 idx=8 miso=0
# [BFM] Launch: bit=24 idx=7 miso=1
# [BFM] Launch: bit=25 idx=6 miso=0
# [BFM] Launch: bit=26 idx=5 miso=1
# [BFM] Launch: bit=27 idx=4 miso=0
# [BFM] Launch: bit=28 idx=3 miso=0
# [BFM] Launch: bit=29 idx=2 miso=1
# [BFM] Launch: bit=30 idx=1 miso=0
# [BFM] Launch: bit=31 idx=0 miso=1
# [BFM] Launch: bit=0 idx=31 miso=0
# [BFM] Launch: bit=1 idx=30 miso=0
# [BFM] Launch: bit=2 idx=29 miso=0
# [BFM] Launch: bit=3 idx=28 miso=0
# [BFM] Launch: bit=4 idx=27 miso=0
# [BFM] Launch: bit=5 idx=26 miso=0
# [BFM] Launch: bit=6 idx=25 miso=0
# [BFM] Launch: bit=7 idx=24 miso=0
# [BFM] Launch: bit=8 idx=23 miso=0
# [BFM] Launch: bit=9 idx=22 miso=0
# [BFM] Launch: bit=10 idx=21 miso=0
# [BFM] Launch: bit=11 idx=20 miso=0
# [BFM] Launch: bit=12 idx=19 miso=0
# [BFM] Launch: bit=13 idx=18 miso=0
# [BFM] Launch: bit=14 idx=17 miso=0
# [BFM] Launch: bit=15 idx=16 miso=0
# [BFM] Launch: bit=16 idx=15 miso=0
# [BFM] Launch: bit=17 idx=14 miso=0
# [BFM] Launch: bit=18 idx=13 miso=0
# [BFM] Launch: bit=19 idx=12 miso=0
# [BFM] Launch: bit=20 idx=11 miso=0
# [BFM] Launch: bit=21 idx=10 miso=0
# [BFM] Launch: bit=22 idx=9 miso=0
# [BFM] Launch: bit=23 idx=8 miso=0
# [BFM] Launch: bit=24 idx=7 miso=1
# [BFM] Launch: bit=25 idx=6 miso=0
# [BFM] Launch: bit=26 idx=5 miso=1
# [BFM] Launch: bit=27 idx=4 miso=0
# [BFM] Launch: bit=28 idx=3 miso=0
# [BFM] Launch: bit=29 idx=2 miso=1
# [BFM] Launch: bit=30 idx=1 miso=0
# [BFM] Launch: bit=31 idx=0 miso=1
# [BFM] Launch: bit=0 idx=31 miso=0
# [BFM] Launch: bit=1 idx=30 miso=0
# [BFM] Launch: bit=2 idx=29 miso=0
# [BFM] Launch: bit=3 idx=28 miso=0
# [BFM] Launch: bit=4 idx=27 miso=0
# [BFM] Launch: bit=5 idx=26 miso=0
# [BFM] Launch: bit=6 idx=25 miso=0
# [BFM] Launch: bit=7 idx=24 miso=0
# [BFM] Launch: bit=8 idx=23 miso=0
# [BFM] Launch: bit=9 idx=22 miso=0
# [BFM] Launch: bit=10 idx=21 miso=0
# [BFM] Launch: bit=11 idx=20 miso=0
# [BFM] Launch: bit=12 idx=19 miso=0
# [BFM] Launch: bit=13 idx=18 miso=0
# [BFM] Launch: bit=14 idx=17 miso=0
# [BFM] Launch: bit=15 idx=16 miso=0
# [BFM] Launch: bit=16 idx=15 miso=0
# [BFM] Launch: bit=17 idx=14 miso=0
# [BFM] Launch: bit=18 idx=13 miso=0
# [BFM] Launch: bit=19 idx=12 miso=0
# [BFM] Launch: bit=20 idx=11 miso=0
# [BFM] Launch: bit=21 idx=10 miso=0
# [BFM] Launch: bit=22 idx=9 miso=0
# [BFM] Launch: bit=23 idx=8 miso=0
# [BFM] Launch: bit=24 idx=7 miso=1
# [BFM] Launch: bit=25 idx=6 miso=0
# [BFM] Launch: bit=26 idx=5 miso=1
# [BFM] Launch: bit=27 idx=4 miso=0
# [BFM] Launch: bit=28 idx=3 miso=0
# [BFM] Launch: bit=29 idx=2 miso=1
# [BFM] Launch: bit=30 idx=1 miso=0
# [BFM] Launch: bit=31 idx=0 miso=1
# [BFM] Launch: bit=0 idx=31 miso=0
# [BFM] Launch: bit=1 idx=30 miso=0
# [BFM] Launch: bit=2 idx=29 miso=0
# [BFM] Launch: bit=3 idx=28 miso=0
# [BFM] Launch: bit=4 idx=27 miso=0
# [BFM] Launch: bit=5 idx=26 miso=0
# [BFM] Launch: bit=6 idx=25 miso=0
# [BFM] Launch: bit=7 idx=24 miso=0
# [BFM] Launch: bit=8 idx=23 miso=0
# [BFM] Launch: bit=9 idx=22 miso=0
# [BFM] Launch: bit=10 idx=21 miso=0
# [BFM] Launch: bit=11 idx=20 miso=0
# [BFM] Launch: bit=12 idx=19 miso=0
# [BFM] Launch: bit=13 idx=18 miso=0
# [BFM] Launch: bit=14 idx=17 miso=0
# [BFM] Launch: bit=15 idx=16 miso=0
# [BFM] Launch: bit=16 idx=15 miso=0
# [BFM] Launch: bit=17 idx=14 miso=0
# [BFM] Launch: bit=18 idx=13 miso=0
# [BFM] Launch: bit=19 idx=12 miso=0
# [BFM] Launch: bit=20 idx=11 miso=0
# [BFM] Launch: bit=21 idx=10 miso=0
# [BFM] Launch: bit=22 idx=9 miso=0
# [BFM] Launch: bit=23 idx=8 miso=0
# [BFM] Launch: bit=24 idx=7 miso=1
# [BFM] Launch: bit=25 idx=6 miso=0
# [BFM] Launch: bit=26 idx=5 miso=1
# [BFM] Launch: bit=27 idx=4 miso=0
# [BFM] Launch: bit=28 idx=3 miso=0
# [BFM] Launch: bit=29 idx=2 miso=1
# [BFM] Launch: bit=30 idx=1 miso=0
# [BFM] Launch: bit=31 idx=0 miso=1
# [BFM] Launch: bit=0 idx=31 miso=0
# [BFM] Launch: bit=1 idx=30 miso=0
# [BFM] Launch: bit=2 idx=29 miso=0
# [BFM] Launch: bit=3 idx=28 miso=0
# [BFM] Launch: bit=4 idx=27 miso=0
# [BFM] Launch: bit=5 idx=26 miso=0
# [BFM] Launch: bit=6 idx=25 miso=0
# [BFM] Launch: bit=7 idx=24 miso=0
# [BFM] Launch: bit=8 idx=23 miso=0
# [BFM] Launch: bit=9 idx=22 miso=0
# [BFM] Launch: bit=10 idx=21 miso=0
# [BFM] Launch: bit=11 idx=20 miso=0
# [BFM] Launch: bit=12 idx=19 miso=0
# [BFM] Launch: bit=13 idx=18 miso=0
# [BFM] Launch: bit=14 idx=17 miso=0
# [BFM] Launch: bit=15 idx=16 miso=0
# [BFM] Launch: bit=16 idx=15 miso=0
# [BFM] Launch: bit=17 idx=14 miso=0
# [BFM] Launch: bit=18 idx=13 miso=0
# [BFM] Launch: bit=19 idx=12 miso=0
# [BFM] Launch: bit=20 idx=11 miso=0
# [BFM] Launch: bit=21 idx=10 miso=0
# [BFM] Launch: bit=22 idx=9 miso=0
# [BFM] Launch: bit=23 idx=8 miso=0
# [BFM] Launch: bit=24 idx=7 miso=1
# [BFM] Launch: bit=25 idx=6 miso=0
# [BFM] Launch: bit=26 idx=5 miso=1
# [BFM] Launch: bit=27 idx=4 miso=0
# [BFM] Launch: bit=28 idx=3 miso=0
# [BFM] Launch: bit=29 idx=2 miso=1
# [BFM] Launch: bit=30 idx=1 miso=0
# [BFM] Launch: bit=31 idx=0 miso=1
# [BFM] Launch: bit=0 idx=31 miso=0
# [BFM] Launch: bit=1 idx=30 miso=0
# [BFM] Launch: bit=2 idx=29 miso=0
# [BFM] Launch: bit=3 idx=28 miso=0
# [BFM] Launch: bit=4 idx=27 miso=0
# [BFM] Launch: bit=5 idx=26 miso=0
# [BFM] Launch: bit=6 idx=25 miso=0
# [BFM] Launch: bit=7 idx=24 miso=0
# [BFM] Launch: bit=8 idx=23 miso=0
# [BFM] Launch: bit=9 idx=22 miso=0
# [BFM] Launch: bit=10 idx=21 miso=0
# [BFM] Launch: bit=11 idx=20 miso=0
# [BFM] Launch: bit=12 idx=19 miso=0
# [BFM] Launch: bit=13 idx=18 miso=0
# [BFM] Launch: bit=14 idx=17 miso=0
# [BFM] Launch: bit=15 idx=16 miso=0
# [BFM] Launch: bit=16 idx=15 miso=0
# [BFM] Launch: bit=17 idx=14 miso=0
# [BFM] Launch: bit=18 idx=13 miso=0
# [BFM] Launch: bit=19 idx=12 miso=0
# [BFM] Launch: bit=20 idx=11 miso=0
# [BFM] Launch: bit=21 idx=10 miso=0
# [BFM] Launch: bit=22 idx=9 miso=0
# [BFM] Launch: bit=23 idx=8 miso=0
# [BFM] Launch: bit=24 idx=7 miso=1
# [BFM] Launch: bit=25 idx=6 miso=0
# [BFM] Launch: bit=26 idx=5 miso=1
# [BFM] Launch: bit=27 idx=4 miso=0
# [BFM] Launch: bit=28 idx=3 miso=0
# [BFM] Launch: bit=29 idx=2 miso=1
# [BFM] Launch: bit=30 idx=1 miso=0
# [BFM] Launch: bit=31 idx=0 miso=1
# [BFM] Launch: bit=0 idx=31 miso=0
# [FIFO_STRESS_TEST] fifo_stress_test: width=2 test Finished
# [INFO] fifo_stress_test: finished, errors=0
# [TEST_PASSED] fifo_stress_test
# ** Note: $finish    : ./tb/tb_top.sv(212)
#    Time: 49635 ns  Iteration: 2  Instance: /tb_top
# Saving coverage database on exit...
# End time: 17:59:10 on May 16,2026, Elapsed time: 0:00:31
# Errors: 0, Warnings: 0
